{
  "2008": {
    "SC Ganguly": "109.40",
    "BB McCullum": "211.24",
    "RT Ponting": "79.59",
    "DJ Hussey": "119.92",
    "Mohammad Hafeez": "77.11",
    "R Dravid": "124.08",
    "W Jaffer": "106.48",
    "V Kohli": "99.40",
    "JH Kallis": "105.85",
    "CL White": "109.62",
    "MV Boucher": "125.00",
    "B Akhil": "153.33",
    "AA Noffke": "100.00",
    "P Kumar": "116.67",
    "Z Khan": "82.93",
    "SB Joshi": "37.50",
    "PA Patel": "96.49",
    "ML Hayden": "141.04",
    "MEK Hussey": "168.00",
    "MS Dhoni": "129.78",
    "SK Raina": "138.49",
    "JDP Oram": "163.64",
    "S Badrinath": "140.15",
    "K Goel": "96.20",
    "JR Hopes": "146.36",
    "KC Sangakkara": "154.59",
    "Yuvraj Singh": "156.54",
    "SM Katich": "133.33",
    "IK Pathan": "110.08",
    "T Kohli": "100.00",
    "YK Pathan": "171.94",
    "SR Watson": "147.96",
    "M Kaif": "101.15",
    "DS Lehmann": "94.74",
    "RA Jadeja": "126.17",
    "M Rawat": "87.18",
    "D Salunkhe": "137.50",
    "SK Warne": "118.64",
    "SK Trivedi": "55.56",
    "G Gambhir": "136.92",
    "V Sehwag": "177.29",
    "S Dhawan": "112.58",
    "L Ronchi": "103.03",
    "ST Jayasuriya": "154.35",
    "DJ Thornely": "81.25",
    "RV Uthappa": "109.97",
    "PR Shah": "94.44",
    "AM Nayar": "147.14",
    "SM Pollock": "126.72",
    "Harbhajan Singh": "176.47",
    "S Chanderpaul": "78.13",
    "LRPL Taylor": "175.29",
    "AC Gilchrist": "132.93",
    "Y Venugopal Rao": "133.33",
    "VVS Laxman": "124.00",
    "A Symonds": "147.71",
    "RG Sharma": "147.99",
    "SB Styris": "91.06",
    "AS Yadav": "122.50",
    "SB Bangar": "95.92",
    "WPUJC Vaas": "123.53",
    "RP Singh": "108.00",
    "WP Saha": "133.61",
    "LR Shukla": "128.35",
    "DPMD Jayawardene": "130.66",
    "S Sohal": "57.14",
    "B Lee": "170.00",
    "PP Chawla": "150.00",
    "WA Mota": "92.86",
    "Kamran Akmal": "168.42",
    "Shahid Afridi": "192.86",
    "DJ Bravo": "129.93",
    "MA Khote": "109.09",
    "A Nehra": "25.00",
    "GC Smith": "119.19",
    "Pankaj Singh": "62.50",
    "RR Sarwan": "94.81",
    "S Sreesanth": "0.00",
    "VRV Singh": "133.33",
    "SS Tiwary": "136.84",
    "DS Kulkarni": "28.57",
    "R Vinay Kumar": "89.29",
    "AB Agarkar": "110.20",
    "M Kartik": "107.14",
    "I Sharma": "100.00",
    "AM Rahane": "66.67",
    "Shoaib Malik": "106.12",
    "MK Tiwary": "120.93",
    "KD Karthik": "134.26",
    "R Bhatia": "125.93",
    "MF Maharoof": "158.23",
    "VY Mahesh": "53.57",
    "TM Srivastava": "88.89",
    "B Chipli": "66.67",
    "DW Steyn": "40.00",
    "DB Das": "109.57",
    "MK Pandey": "60.00",
    "HH Gibbs": "105.70",
    "DNT Zoysa": "122.22",
    "D Kalyankrishna": "50.00",
    "SE Marsh": "136.59",
    "SA Asnodkar": "129.05",
    "Sohail Tanvir": "116.13",
    "Salman Butt": "112.21",
    "BJ Hodge": "75.00",
    "Umar Gul": "205.26",
    "AB Dinda": "66.67",
    "SP Fleming": "116.67",
    "S Vidyut": "126.09",
    "JA Morkel": "143.45",
    "AB de Villiers": "95.96",
    "LPC Silva": "160.00",
    "DB Ravi Teja": "128.24",
    "Misbah-ul-Haq": "144.44",
    "YV Takawale": "107.69",
    "RR Raje": "88.89",
    "PJ Sangwan": "50.00",
    "Mohammad Asif": "75.00",
    "GD McGrath": "133.33",
    "Joginder Sharma": "177.78",
    "MS Gony": "159.09",
    "M Muralitharan": "0.00",
    "M Ntini": "61.11",
    "DT Patil": "100.00",
    "A Kumble": "92.86",
    "S Anirudha": "20.00",
    "MM Patel": "0.00",
    "CK Kapugedera": "66.67",
    "A Chopra": "77.78",
    "T Taibu": "119.23",
    "J Arunkumar": "121.05",
    "PP Ojha": "50.00",
    "SP Goswami": "95.35",
    "SR Tendulkar": "99.47",
    "U Kaul": "0.00",
    "TM Dilshan": "131.65",
    "A Mishra": "88.10",
    "AD Mascarenhas": "112.50",
    "Niraj Patel": "125.61",
    "LA Pomersbach": "152.00",
    "Iqbal Abdulla": "100.00",
    "Younis Khan": "42.86",
    "PM Sarvesh Kumar": "100.00",
    "DP Vijaykumar": "100.00",
    "Shoaib Akhtar": "40.00",
    "Abdur Razzak": "0.00",
    "H Das": "66.67",
    "DR Smith": "115.38",
    "SD Chitnis": "180.00",
    "CRD Fernando": "200.00",
    "VS Yeligati": "100.00",
    "L Balaji": "0.00",
    "A Mukund": "0.00",
    "RR Powar": "164.71"
  },
  "2009": {
    "ST Jayasuriya": "107.80",
    "SR Tendulkar": "116.29",
    "S Dhawan": "86.96",
    "JP Duminy": "111.38",
    "DJ Bravo": "103.32",
    "AM Nayar": "124.52",
    "Harbhajan Singh": "147.37",
    "Z Khan": "72.73",
    "PA Patel": "110.94",
    "SK Raina": "137.78",
    "ML Hayden": "139.85",
    "A Flintoff": "114.81",
    "MS Dhoni": "123.88",
    "JDP Oram": "93.62",
    "S Badrinath": "107.93",
    "Joginder Sharma": "117.65",
    "T Thushara": "33.33",
    "JD Ryder": "127.27",
    "LRPL Taylor": "133.97",
    "KP Pietersen": "105.68",
    "RV Uthappa": "100.57",
    "R Dravid": "113.87",
    "V Kohli": "109.82",
    "B Akhil": "113.33",
    "P Kumar": "147.73",
    "R Vinay Kumar": "106.82",
    "GC Smith": "96.36",
    "SA Asnodkar": "103.16",
    "Niraj Patel": "45.00",
    "T Henderson": "91.67",
    "YK Pathan": "138.83",
    "AD Mascarenhas": "108.33",
    "RA Jadeja": "107.66",
    "SK Warne": "94.74",
    "M Rawat": "80.00",
    "MM Patel": "143.48",
    "Kamran Khan": "100.00",
    "RS Bopara": "113.11",
    "K Goel": "89.86",
    "KC Sangakkara": "101.22",
    "Yuvraj Singh": "107.94",
    "DPMD Jayawardene": "128.07",
    "IK Pathan": "121.74",
    "G Gambhir": "102.14",
    "V Sehwag": "135.62",
    "BB McCullum": "115.79",
    "CH Gayle": "122.67",
    "SC Ganguly": "88.73",
    "BJ Hodge": "116.24",
    "A Chopra": "68.75",
    "LR Shukla": "96.51",
    "MC Henriques": "97.44",
    "AB Agarkar": "113.79",
    "M Kartik": "105.00",
    "I Sharma": "160.00",
    "AB Dinda": "66.67",
    "AC Gilchrist": "147.76",
    "HH Gibbs": "108.16",
    "VVS Laxman": "61.29",
    "RG Sharma": "113.48",
    "JA Morkel": "132.88",
    "JH Kallis": "103.74",
    "R Bishnoi": "118.75",
    "DW Steyn": "0.00",
    "A Kumble": "100.00",
    "T Kohli": "50.00",
    "PP Chawla": "79.49",
    "SB Styris": "175.00",
    "Y Venugopal Rao": "105.98",
    "DB Ravi Teja": "91.55",
    "FH Edwards": "100.00",
    "KV Sharma": "33.33",
    "AB de Villiers": "129.53",
    "TM Dilshan": "117.42",
    "KD Karthik": "128.57",
    "MK Tiwary": "90.00",
    "MS Gony": "185.71",
    "M Muralitharan": "114.29",
    "PC Valthaty": "50.00",
    "RJ Quiney": "98.10",
    "AS Raut": "127.87",
    "SB Bangar": "40.00",
    "Yashpal Singh": "72.31",
    "Pankaj Singh": "100.00",
    "DR Smith": "160.45",
    "RP Singh": "47.06",
    "PP Ojha": "20.00",
    "PR Shah": "98.15",
    "MV Boucher": "123.97",
    "M Manhas": "117.19",
    "WA Mota": "63.83",
    "AA Bilakhia": "82.72",
    "SS Tiwary": "108.33",
    "AN Ghosh": "100.00",
    "BAW Mendis": "0.00",
    "DL Vettori": "106.25",
    "A Mishra": "173.33",
    "PJ Sangwan": "60.00",
    "MN van Wyk": "123.70",
    "WP Saha": "175.61",
    "SP Goswami": "89.83",
    "RE van der Merwe": "123.23",
    "MK Pandey": "140.00",
    "RR Powar": "109.52",
    "TL Suman": "122.80",
    "Shoaib Ahmed": "50.00",
    "SK Trivedi": "47.37",
    "GR Napier": "93.75",
    "AM Rahane": "112.50",
    "KP Appanna": "0.00",
    "SM Katich": "121.85",
    "TM Srivastava": "0.00",
    "LA Carseldine": "114.08",
    "NV Ojha": "121.74",
    "SM Harwood": "69.23",
    "M Vijay": "89.55",
    "SB Jakati": "133.33",
    "L Balaji": "40.00",
    "DA Warner": "118.98",
    "R Bhatia": "50.00",
    "S Sohal": "115.00",
    "W Jaffer": "83.33",
    "RJ Harris": "116.67",
    "S Sreesanth": "38.46",
    "RR Raje": "133.33",
    "DS Kulkarni": "50.00",
    "D du Preez": "76.92",
    "L Ronchi": "0.00",
    "A Symonds": "145.61",
    "B Lee": "82.35",
    "WPUJC Vaas": "142.86",
    "M Morkel": "100.00",
    "DJ Hussey": "160.66",
    "AD Mathews": "123.08",
    "LA Pomersbach": "85.42",
    "SD Chitnis": "85.71",
    "J Botha": "111.90",
    "YV Takawale": "81.82",
    "C Nanda": "0.00",
    "SL Malinga": "0.00",
    "MF Maharoof": "100.00",
    "A Nehra": "100.00",
    "Mashrafe Mortaza": "100.00",
    "A Singh": "100.00",
    "GJ Bailey": "118.42",
    "AB McDonald": "75.00",
    "Y Nagar": "90.91",
    "SS Shaikh": "150.00",
    "R Ashwin": "72.73",
    "Mohammad Ashraful": "33.33"
  },
  "2010": {
    "MK Tiwary": "124.74",
    "SC Ganguly": "113.07",
    "CA Pujara": "105.17",
    "BJ Hodge": "107.61",
    "OA Shah": "122.34",
    "AD Mathews": "118.27",
    "AC Gilchrist": "146.70",
    "VVS Laxman": "104.92",
    "HH Gibbs": "110.79",
    "A Symonds": "120.85",
    "RG Sharma": "130.32",
    "Anirudh Singh": "91.30",
    "TL Suman": "116.29",
    "WPUJC Vaas": "90.91",
    "Jaskaran Singh": "80.00",
    "ST Jayasuriya": "94.29",
    "SR Tendulkar": "126.38",
    "AP Tare": "121.95",
    "SS Tiwary": "131.35",
    "AT Rayudu": "137.98",
    "R Sathish": "116.67",
    "Harbhajan Singh": "166.67",
    "R McLaren": "92.96",
    "GC Smith": "118.92",
    "NV Ojha": "129.55",
    "AA Jhunjhunwala": "107.65",
    "YK Pathan": "158.57",
    "P Dogra": "99.07",
    "AD Mascarenhas": "109.09",
    "A Uniyal": "66.67",
    "SK Warne": "47.62",
    "RS Bopara": "113.76",
    "MS Bisla": "117.84",
    "KC Sangakkara": "137.31",
    "Yuvraj Singh": "128.22",
    "DPMD Jayawardene": "143.09",
    "IK Pathan": "146.81",
    "M Kaif": "93.33",
    "PP Chawla": "100.00",
    "RR Powar": "100.00",
    "S Sreesanth": "168.75",
    "YA Abdulla": "0.00",
    "G Gambhir": "124.22",
    "V Sehwag": "157.52",
    "TM Dilshan": "86.27",
    "AB de Villiers": "90.98",
    "KD Karthik": "115.35",
    "M Manhas": "103.97",
    "MF Maharoof": "129.17",
    "JH Kallis": "110.85",
    "SP Goswami": "100.00",
    "MK Pandey": "111.66",
    "V Kohli": "142.79",
    "EJG Morgan": "116.67",
    "R Dravid": "126.11",
    "RV Uthappa": "166.96",
    "RE van der Merwe": "50.00",
    "P Kumar": "50.00",
    "M Vijay": "150.66",
    "ML Hayden": "117.29",
    "SK Raina": "136.79",
    "S Badrinath": "115.21",
    "JM Kemp": "104.00",
    "MS Dhoni": "133.49",
    "JA Morkel": "147.41",
    "R Ashwin": "81.08",
    "L Balaji": "94.74",
    "M Muralitharan": "50.00",
    "S Tyagi": "75.00",
    "SA Asnodkar": "125.00",
    "WP Saha": "128.85",
    "LR Shukla": "133.33",
    "RS Gavaskar": "33.33",
    "SE Bond": "50.00",
    "M Kartik": "104.76",
    "I Sharma": "35.29",
    "KA Pollard": "179.61",
    "DJ Bravo": "115.09",
    "A Mishra": "72.22",
    "PJ Sangwan": "90.91",
    "S Ladda": "0.00",
    "DP Nannes": "33.33",
    "MJ Lumb": "142.56",
    "DR Martyn": "73.08",
    "S Narwal": "116.67",
    "M Morkel": "90.00",
    "MM Patel": "133.33",
    "SK Trivedi": "181.82",
    "DA Warner": "145.36",
    "R Bhatia": "141.18",
    "PA Patel": "90.00",
    "RP Singh": "45.00",
    "AB Barath": "97.67",
    "Bipul Sharma": "128.57",
    "FY Fazal": "103.14",
    "AC Voges": "126.57",
    "Z Khan": "200.00",
    "MD Mishra": "112.93",
    "Y Venugopal Rao": "79.07",
    "MC Henriques": "220.00",
    "Y Nagar": "50.00",
    "UT Yadav": "100.00",
    "J Theron": "66.67",
    "MS Gony": "40.00",
    "CH Gayle": "148.22",
    "S Dhawan": "106.11",
    "MV Boucher": "144.44",
    "GJ Bailey": "69.23",
    "SJ Srivastava": "100.00",
    "R Sharma": "111.54",
    "Mandeep Singh": "57.14",
    "DJ Hussey": "105.62",
    "K Goel": "90.00",
    "B Lee": "110.00",
    "KM Jadhav": "126.67",
    "AB McDonald": "132.65",
    "R Vinay Kumar": "79.41",
    "DW Steyn": "92.86",
    "A Kumble": "50.00",
    "SW Tait": "92.31",
    "KB Arun Karthik": "60.00",
    "T Thushara": "100.00",
    "KAJ Roach": "111.11",
    "PD Collingwood": "129.30",
    "AB Agarkar": "133.33",
    "CK Langeveldt": "0.00",
    "SE Marsh": "127.83",
    "VS Malik": "150.00",
    "KP Pietersen": "151.28",
    "CL White": "154.84",
    "SR Watson": "158.12",
    "AS Raut": "116.67",
    "RJ Harris": "115.38",
    "PP Ojha": "37.50",
    "DL Vettori": "122.22",
    "LRPL Taylor": "115.79",
    "A Mithun": "166.67",
    "KP Appanna": "66.67",
    "AP Dole": "161.90",
    "DR Smith": "91.67",
    "AA Bilakhia": "66.67",
    "MEK Hussey": "86.05",
    "AN Ahmed": "66.67",
    "BB McCullum": "98.28",
    "JP Duminy": "118.94",
    "RS Sodhi": "200.00",
    "DE Bollinger": "120.00",
    "AB Dinda": "0.00",
    "BAW Mendis": "100.00",
    "S Sriram": "87.10",
    "A Nehra": "115.00",
    "B Sumanth": "92.11",
    "C Madan": "71.43",
    "Iqbal Abdulla": "0.00",
    "AG Paunikar": "0.00",
    "MR Marsh": "100.00",
    "AM Nayar": "113.73",
    "Pankaj Singh": "50.00",
    "AJ Finch": "110.53",
    "STR Binny": "160.00",
    "S Anirudha": "166.67",
    "Harmeet Singh": "0.00",
    "CRD Fernando": "100.00",
    "SL Malinga": "100.00"
  },
  "2011": {
    "S Anirudha": "107.79",
    "M Vijay": "125.07",
    "SK Raina": "131.53",
    "MS Dhoni": "158.70",
    "JA Morkel": "127.78",
    "SB Styris": "250.00",
    "MS Bisla": "81.82",
    "JH Kallis": "109.84",
    "YK Pathan": "138.73",
    "MK Tiwary": "106.85",
    "EJG Morgan": "113.22",
    "G Gambhir": "114.20",
    "LR Shukla": "140.00",
    "Iqbal Abdulla": "125.00",
    "R Bhatia": "119.05",
    "S Dhawan": "126.98",
    "IR Jaggi": "77.78",
    "KC Sangakkara": "121.77",
    "B Chipli": "120.35",
    "JP Duminy": "116.48",
    "DT Christian": "118.75",
    "DB Ravi Teja": "124.49",
    "DW Steyn": "100.00",
    "A Mishra": "130.77",
    "I Sharma": "80.00",
    "AG Paunikar": "81.67",
    "R Dravid": "109.58",
    "J Botha": "116.16",
    "LRPL Taylor": "116.77",
    "BB McCullum": "122.26",
    "VVS Laxman": "112.82",
    "DPMD Jayawardene": "111.15",
    "BJ Hodge": "116.33",
    "RA Jadeja": "121.46",
    "RV Gomez": "95.83",
    "PA Patel": "107.45",
    "MA Agarwal": "109.30",
    "TM Dilshan": "123.50",
    "V Kohli": "118.26",
    "AB de Villiers": "127.35",
    "SS Tiwary": "96.89",
    "AUK Pathan": "183.33",
    "DA Warner": "115.71",
    "V Sehwag": "171.66",
    "UBT Chand": "66.67",
    "AJ Finch": "94.00",
    "NV Ojha": "95.81",
    "Y Venugopal Rao": "117.07",
    "IK Pathan": "104.17",
    "RE van der Merwe": "93.33",
    "M Morkel": "173.91",
    "UT Yadav": "100.00",
    "AB Dinda": "0.00",
    "DJ Jacobs": "104.55",
    "SR Tendulkar": "108.64",
    "AT Rayudu": "111.58",
    "RG Sharma": "123.59",
    "AC Gilchrist": "124.35",
    "SE Marsh": "144.41",
    "PC Valthaty": "131.91",
    "KD Karthik": "130.56",
    "AM Nayar": "96.83",
    "Sunny Singh": "138.71",
    "R McLaren": "90.00",
    "PP Chawla": "94.12",
    "P Kumar": "84.38",
    "NJ Rimmington": "100.00",
    "GC Smith": "80.77",
    "M Manhas": "92.68",
    "JD Ryder": "145.27",
    "RV Uthappa": "123.94",
    "Yuvraj Singh": "127.51",
    "AL Menaria": "114.65",
    "AM Rahane": "126.32",
    "S Badrinath": "126.11",
    "R Vinay Kumar": "104.17",
    "S Sreesanth": "25.00",
    "RP Singh": "66.67",
    "MD Mishra": "111.67",
    "WD Parnell": "100.00",
    "R Sharma": "133.33",
    "S Sohal": "124.50",
    "Z Khan": "100.00",
    "CA Pujara": "109.68",
    "JJ van der Wath": "128.57",
    "R Ninan": "50.00",
    "DL Vettori": "76.67",
    "S Aravind": "162.50",
    "SR Watson": "128.91",
    "MEK Hussey": "116.31",
    "MS Gony": "0.00",
    "MS Wade": "68.75",
    "JR Hopes": "120.99",
    "FY Fazal": "100.00",
    "AS Raut": "107.14",
    "SK Warne": "55.56",
    "A Singh": "50.00",
    "SW Tait": "111.11",
    "SK Trivedi": "0.00",
    "CL White": "95.41",
    "Y Nagar": "102.78",
    "TD Paine": "37.04",
    "M Kartik": "85.71",
    "SB Wagh": "66.67",
    "AC Thomas": "50.00",
    "JEC Franklin": "138.96",
    "A Symonds": "94.41",
    "KM Jadhav": "78.26",
    "RR Powar": "91.67",
    "Shakib Al Hasan": "126.09",
    "B Lee": "62.50",
    "L Balaji": "200.00",
    "SA Asnodkar": "128.57",
    "STR Binny": "127.59",
    "DH Yagnik": "69.57",
    "R Sathish": "89.29",
    "KA Pollard": "108.15",
    "R Ashwin": "50.00",
    "Joginder Sharma": "0.00",
    "S Randiv": "66.67",
    "DE Bollinger": "0.00",
    "BJ Haddin": "180.00",
    "CH Gayle": "178.30",
    "DJ Hussey": "98.46",
    "RJ Harris": "79.49",
    "NLTC Perera": "85.19",
    "M Muralitharan": "62.50",
    "MK Pandey": "106.96",
    "NL McCullum": "118.18",
    "JE Taylor": "100.00",
    "A Mithun": "150.00",
    "J Syed Mohammad": "136.36",
    "MR Marsh": "102.04",
    "SP Goswami": "96.67",
    "RN ten Doeschate": "140.79",
    "TR Birt": "131.58",
    "Harbhajan Singh": "139.19",
    "SL Malinga": "114.29",
    "AG Murtaza": "40.00",
    "M Kaif": "117.14",
    "Harpreet Singh": "70.00",
    "M Klinger": "94.81",
    "B Akhil": "144.44",
    "Bipul Sharma": "127.78",
    "AC Blizzard": "136.36",
    "TL Suman": "122.64",
    "AA Jhunjhunwala": "58.82",
    "MV Boucher": "100.00",
    "I Malhotra": "175.00",
    "L Ablish": "0.00",
    "CA Ingram": "80.77",
    "AB Agarkar": "100.00",
    "S Nadeem": "0.00",
    "P Parameswaran": "100.00",
    "Mandeep Singh": "114.63",
    "SD Chitnis": "100.00",
    "SJ Srivastava": "133.33",
    "CJ Ferguson": "90.57",
    "SC Ganguly": "86.21",
    "DS Kulkarni": "50.00",
    "MM Patel": "0.00",
    "AB McDonald": "114.29",
    "OA Shah": "173.33",
    "LA Pomersbach": "124.39",
    "KB Arun Karthik": "87.50",
    "MJ Lumb": "0.00",
    "S Sriram": "57.14",
    "VR Aaron": "0.00",
    "PR Shah": "100.00",
    "JDP Oram": "0.00",
    "AA Chavan": "100.00",
    "ND Doshi": "0.00",
    "B Kumar": "100.00",
    "CK Langeveldt": "160.00",
    "WP Saha": "104.62",
    "Y Gnaneswara Rao": "105.56",
    "S Rana": "128.57",
    "BA Bhatt": "0.00",
    "DJ Bravo": "220.00",
    "AN Ahmed": "150.00"
  },
  "2012": {
    "F du Plessis": "129.22",
    "M Vijay": "125.84",
    "SK Raina": "132.04",
    "DJ Bravo": "138.43",
    "JA Morkel": "155.07",
    "S Badrinath": "104.26",
    "MS Dhoni": "126.60",
    "RA Jadeja": "125.66",
    "R Ashwin": "120.00",
    "SB Jakati": "77.78",
    "DE Bollinger": "75.00",
    "RE Levi": "118.57",
    "SR Tendulkar": "110.20",
    "RG Sharma": "124.78",
    "AT Rayudu": "127.59",
    "JEC Franklin": "96.49",
    "BB McCullum": "101.05",
    "JH Kallis": "104.60",
    "G Gambhir": "137.85",
    "MK Tiwary": "105.26",
    "YK Pathan": "111.49",
    "DB Das": "131.25",
    "LR Shukla": "131.58",
    "R Bhatia": "116.67",
    "B Lee": "200.00",
    "Iqbal Abdulla": "66.67",
    "AJ Finch": "105.77",
    "V Sehwag": "156.15",
    "IK Pathan": "132.33",
    "GJ Maxwell": "60.00",
    "MK Pandey": "130.00",
    "WD Parnell": "73.08",
    "SC Ganguly": "93.38",
    "RV Uthappa": "113.45",
    "CJ Ferguson": "80.65",
    "SPD Smith": "133.09",
    "MN Samuels": "100.00",
    "B Kumar": "97.56",
    "M Kartik": "123.81",
    "KD Karthik": "109.68",
    "SA Yadav": "0.00",
    "KA Pollard": "135.80",
    "Harbhajan Singh": "131.71",
    "SL Malinga": "100.00",
    "PP Ojha": "66.67",
    "MM Patel": "33.33",
    "R Dravid": "108.96",
    "AM Rahane": "125.84",
    "AL Menaria": "107.84",
    "BJ Hodge": "136.11",
    "OA Shah": "126.39",
    "KK Cooper": "190.00",
    "AC Gilchrist": "117.81",
    "PC Valthaty": "60.00",
    "SE Marsh": "116.67",
    "AM Nayar": "93.75",
    "Mandeep Singh": "123.78",
    "DJ Hussey": "126.52",
    "Bipul Sharma": "156.52",
    "PP Chawla": "120.45",
    "JP Faulkner": "100.00",
    "P Kumar": "112.90",
    "Harmeet Singh": "214.29",
    "AB McDonald": "134.29",
    "CA Pujara": "80.95",
    "V Kohli": "109.31",
    "AB de Villiers": "157.14",
    "SS Tiwary": "111.05",
    "MA Agarwal": "138.04",
    "DL Vettori": "110.71",
    "R Vinay Kumar": "107.94",
    "HV Patel": "100.00",
    "NV Ojha": "110.87",
    "Y Venugopal Rao": "102.33",
    "Y Nagar": "115.91",
    "DAJ Bracewell": "150.00",
    "M Morkel": "60.00",
    "DJ Harris": "107.77",
    "S Dhawan": "127.29",
    "PA Patel": "117.58",
    "CL White": "146.48",
    "B Chipli": "112.12",
    "DT Christian": "118.85",
    "MS Gony": "66.67",
    "DB Ravi Teja": "200.00",
    "DW Steyn": "100.00",
    "Ankit Sharma": "138.46",
    "SP Goswami": "100.00",
    "SP Narine": "128.57",
    "JD Ryder": "118.52",
    "R Sharma": "28.57",
    "AD Mascarenhas": "87.50",
    "KC Sangakkara": "105.82",
    "A Mishra": "84.21",
    "TL Suman": "93.75",
    "MS Bisla": "125.29",
    "RN ten Doeschate": "105.00",
    "Shakib Al Hasan": "118.18",
    "CH Gayle": "155.30",
    "Z Khan": "70.59",
    "KP Pietersen": "145.24",
    "DPMD Jayawardene": "110.56",
    "J Botha": "107.41",
    "AA Chavan": "137.50",
    "A Singh": "0.00",
    "SK Trivedi": "83.33",
    "GB Hogg": "107.14",
    "RR Bhatkal": "0.00",
    "AD Mathews": "118.69",
    "M Manhas": "121.21",
    "A Nehra": "91.67",
    "AB Dinda": "40.00",
    "JP Duminy": "125.77",
    "AA Jhunjhunwala": "100.00",
    "LRPL Taylor": "111.30",
    "P Dogra": "60.00",
    "BA Bhatt": "600.00",
    "M Kaif": "93.33",
    "S Aravind": "175.00",
    "M Muralitharan": "75.00",
    "DJ Jacobs": "0.00",
    "CJ McKay": "66.67",
    "RP Singh": "75.00",
    "DH Yagnik": "178.57",
    "TM Dilshan": "104.40",
    "DA Warner": "161.01",
    "N Saini": "97.90",
    "DA Miller": "128.95",
    "Azhar Mahmood": "128.28",
    "P Negi": "124.14",
    "NLTC Perera": "33.33",
    "IR Jaggi": "68.18",
    "STR Binny": "134.33",
    "RJ Peterson": "100.00",
    "AC Thomas": "126.67",
    "AC Blizzard": "0.00",
    "WP Saha": "54.55",
    "KMDN Kulasekara": "166.67",
    "A Ashish Reddy": "129.63",
    "V Pratap Singh": "0.00",
    "MEK Hussey": "109.21",
    "BB Samantray": "100.00",
    "MJ Clarke": "102.08",
    "SR Watson": "150.00",
    "AUK Pathan": "75.00",
    "Gurkeerat Singh": "159.26",
    "RJ Harris": "200.00",
    "DR Smith": "155.45",
    "J Syed Mohammad": "400.00",
    "S Nadeem": "0.00",
    "VR Aaron": "33.33",
    "AP Majumdar": "114.47",
    "SD Chitnis": "103.13",
    "PA Reddy": "115.87",
    "J Theron": "175.00",
    "S Anirudha": "237.50",
    "MD Mishra": "200.00",
    "K Upadhyay": "137.50",
    "HH Gibbs": "94.19",
    "P Awana": "100.00",
    "UBT Chand": "105.88",
    "AD Russell": "174.07",
    "UT Yadav": "40.00",
    "A Chandila": "0.00",
    "CA Lynn": "75.00",
    "Harpreet Singh": "100.00",
    "AG Murtaza": "75.00",
    "P Parameswaran": "0.00",
    "DS Kulkarni": "200.00",
    "Sunny Gupta": "0.00"
  },
  "2013": {
    "UBT Chand": "99.37",
    "DPMD Jayawardene": "102.80",
    "DA Warner": "123.87",
    "MC Juneja": "93.28",
    "NV Ojha": "100.00",
    "J Botha": "82.69",
    "IK Pathan": "96.23",
    "AD Russell": "91.67",
    "S Nadeem": "56.00",
    "A Nehra": "25.00",
    "MS Bisla": "105.81",
    "G Gambhir": "114.69",
    "JH Kallis": "95.69",
    "MK Tiwary": "103.55",
    "EJG Morgan": "123.79",
    "YK Pathan": "136.07",
    "CH Gayle": "149.38",
    "TM Dilshan": "85.39",
    "V Kohli": "135.67",
    "MA Agarwal": "109.84",
    "DT Christian": "42.86",
    "KK Nair": "100.00",
    "KB Arun Karthik": "102.50",
    "RT Ponting": "70.27",
    "SR Tendulkar": "118.60",
    "KD Karthik": "121.14",
    "RG Sharma": "130.27",
    "AT Rayudu": "112.77",
    "Harbhajan Singh": "141.46",
    "KA Pollard": "144.83",
    "PA Reddy": "87.50",
    "PA Patel": "112.64",
    "KC Sangakkara": "89.55",
    "CL White": "113.57",
    "NLTC Perera": "135.84",
    "GH Vihari": "83.97",
    "A Ashish Reddy": "138.89",
    "DB Ravi Teja": "77.78",
    "RV Uthappa": "113.02",
    "MK Pandey": "98.55",
    "MN Samuels": "61.54",
    "Yuvraj Singh": "123.96",
    "LRPL Taylor": "81.82",
    "AM Nayar": "90.41",
    "MR Marsh": "128.44",
    "AD Mathews": "121.99",
    "B Kumar": "72.22",
    "R Sharma": "68.75",
    "AB Dinda": "112.50",
    "MDKJ Perera": "116.67",
    "AM Rahane": "103.83",
    "R Dravid": "109.03",
    "STR Binny": "144.33",
    "BJ Hodge": "130.80",
    "AL Menaria": "50.00",
    "KK Cooper": "177.27",
    "R Shukla": "100.00",
    "DR Smith": "119.77",
    "MEK Hussey": "126.38",
    "M Vijay": "106.48",
    "SK Raina": "148.11",
    "DJ Bravo": "109.01",
    "S Badrinath": "100.81",
    "MS Dhoni": "154.70",
    "RA Jadeja": "145.65",
    "R Ashwin": "72.92",
    "B Laughlin": "57.14",
    "AS Rajpoot": "50.00",
    "TL Suman": "96.30",
    "AC Gilchrist": "125.64",
    "Mandeep Singh": "115.04",
    "M Vohra": "138.79",
    "DJ Hussey": "111.90",
    "MC Henriques": "130.95",
    "R Vinay Kumar": "159.09",
    "M Kartik": "66.67",
    "JD Unadkat": "100.00",
    "DW Steyn": "143.24",
    "SR Watson": "140.67",
    "DH Yagnik": "128.87",
    "S Sreesanth": "33.33",
    "LR Shukla": "25.00",
    "R Bhatia": "123.75",
    "B Lee": "210.00",
    "Mohammed Shami": "62.50",
    "SP Narine": "105.00",
    "BMAJ Mendis": "92.00",
    "KM Jadhav": "119.69",
    "M Morkel": "190.00",
    "UT Yadav": "100.00",
    "Gurkeerat Singh": "110.20",
    "Azhar Mahmood": "124.05",
    "R Sathish": "139.74",
    "PP Chawla": "106.67",
    "RJ Harris": "66.67",
    "P Kumar": "120.51",
    "P Awana": "11.11",
    "R McLaren": "60.00",
    "PJ Sangwan": "400.00",
    "AB de Villiers": "167.26",
    "JP Faulkner": "101.79",
    "AJ Finch": "133.33",
    "V Sehwag": "120.90",
    "A Mishra": "89.00",
    "R Rampaul": "115.15",
    "CH Morris": "82.35",
    "KV Sharma": "95.51",
    "SV Samson": "115.73",
    "SPD Smith": "118.66",
    "S Anirudha": "0.00",
    "JA Morkel": "127.78",
    "DA Miller": "163.28",
    "MS Gony": "166.67",
    "DB Das": "100.00",
    "SMSM Senanayake": "58.82",
    "BJ Rohrer": "133.10",
    "KL Rahul": "166.67",
    "AB McDonald": "0.00",
    "J Syed Mohammad": "76.92",
    "Q de Kock": "42.86",
    "BB Samantray": "113.89",
    "R Dhawan": "116.67",
    "MG Johnson": "114.71",
    "SL Malinga": "69.23",
    "PP Ojha": "50.00",
    "AB Agarkar": "80.00",
    "PC Valthaty": "46.15",
    "AD Mascarenhas": "125.00",
    "L Balaji": "100.00",
    "A Chandila": "66.67",
    "SW Tait": "50.00",
    "SK Trivedi": "75.00",
    "SS Tiwary": "102.83",
    "LJ Wright": "168.25",
    "M Manhas": "92.86",
    "AG Murtaza": "125.00",
    "IC Pandey": "0.00",
    "SE Marsh": "118.11",
    "CM Gautam": "125.71",
    "S Dhawan": "118.70",
    "X Thalaivan Sargunam": "62.50",
    "DJG Sammy": "127.94",
    "WP Saha": "125.00",
    "BB McCullum": "150.00",
    "A Mukund": "86.36",
    "OA Shah": "104.17",
    "KW Richardson": "97.14",
    "S Narwal": "143.75",
    "LA Pomersbach": "100.00",
    "BAW Mendis": "66.67",
    "CA Pujara": "92.93",
    "MM Sharma": "0.00",
    "Iqbal Abdulla": "61.54",
    "RN ten Doeschate": "139.34",
    "UA Birla": "46.67",
    "M Rawat": "62.50",
    "WD Parnell": "71.43",
    "Parvez Rasool": "62.50",
    "K Upadhyay": "100.00",
    "GJ Maxwell": "133.33",
    "Harmeet Singh": "75.00",
    "Sandeep Sharma": "0.00",
    "A Mithun": "100.00",
    "RE van der Merwe": "88.00",
    "S Kaul": "100.00",
    "AP Tare": "146.43",
    "Sachin Baby": "50.00",
    "PV Tambe": "75.00",
    "NM Coulter-Nile": "150.00",
    "RV Gomez": "400.00",
    "B Chipli": "88.89",
    "P Dogra": "71.43"
  },
  "2014": {
    "G Gambhir": "118.37",
    "JH Kallis": "115.27",
    "MK Pandey": "114.25",
    "RV Uthappa": "136.08",
    "YK Pathan": "159.52",
    "Shakib Al Hasan": "144.03",
    "SA Yadav": "133.33",
    "MEK Hussey": "111.76",
    "AP Tare": "123.53",
    "AT Rayudu": "122.37",
    "RG Sharma": "127.04",
    "KA Pollard": "132.52",
    "CJ Anderson": "144.02",
    "Harbhajan Singh": "133.33",
    "CM Gautam": "105.22",
    "MA Agarwal": "126.37",
    "M Vijay": "106.70",
    "KD Karthik": "126.46",
    "MK Tiwary": "124.59",
    "JP Duminy": "133.99",
    "LRPL Taylor": "100.00",
    "PA Patel": "109.04",
    "NJ Maddinson": "114.29",
    "V Kohli": "119.27",
    "Yuvraj Singh": "130.56",
    "DR Smith": "133.18",
    "BB McCullum": "118.77",
    "SK Raina": "141.35",
    "MS Dhoni": "143.80",
    "DJ Bravo": "266.67",
    "CA Pujara": "97.66",
    "V Sehwag": "136.23",
    "GJ Maxwell": "176.92",
    "AR Patel": "103.33",
    "DA Miller": "145.28",
    "GJ Bailey": "135.26",
    "AJ Finch": "116.17",
    "DA Warner": "137.86",
    "S Dhawan": "114.94",
    "KL Rahul": "100.61",
    "DJG Sammy": "111.34",
    "Y Venugopal Rao": "109.23",
    "KV Sharma": "150.00",
    "AM Nayar": "86.00",
    "SV Samson": "122.83",
    "AM Rahane": "114.14",
    "SR Watson": "120.00",
    "STR Binny": "100.82",
    "BJ Hodge": "140.28",
    "R Bhatia": "121.82",
    "JP Faulkner": "182.83",
    "Z Khan": "160.00",
    "SL Malinga": "100.00",
    "PP Ojha": "57.14",
    "JJ Bumrah": "25.00",
    "AB de Villiers": "156.13",
    "JDS Neesham": "95.45",
    "SPD Smith": "132.17",
    "WP Saha": "141.96",
    "F du Plessis": "127.85",
    "RA Jadeja": "129.20",
    "M Manhas": "134.62",
    "R Ashwin": "93.75",
    "S Nadeem": "41.18",
    "Mohammed Shami": "37.50",
    "JD Unadkat": "50.00",
    "MG Johnson": "116.67",
    "IK Pathan": "96.49",
    "DW Steyn": "84.62",
    "A Mishra": "66.67",
    "B Kumar": "33.33",
    "TG Southee": "133.33",
    "DS Kulkarni": "129.63",
    "PV Tambe": "55.56",
    "CA Lynn": "111.54",
    "R Vinay Kumar": "66.67",
    "YV Takawale": "116.85",
    "JA Morkel": "109.76",
    "Q de Kock": "115.91",
    "KP Pietersen": "125.11",
    "S Rana": "110.61",
    "MA Starc": "101.19",
    "R Rampaul": "108.33",
    "AB Dinda": "44.44",
    "KK Nair": "140.43",
    "R Dhawan": "109.33",
    "L Balaji": "100.00",
    "Sandeep Sharma": "50.00",
    "PP Chawla": "182.35",
    "SP Narine": "66.67",
    "UT Yadav": "66.67",
    "M Morkel": "100.00",
    "KM Jadhav": "144.66",
    "CH Gayle": "104.26",
    "VR Aaron": "116.67",
    "MS Bisla": "33.33",
    "NV Ojha": "136.47",
    "BR Dunk": "114.29",
    "AD Russell": "40.00",
    "RR Rossouw": "97.50",
    "HV Patel": "216.67",
    "RN ten Doeschate": "162.50",
    "LR Shukla": "86.11",
    "Mandeep Singh": "100.00",
    "MC Henriques": "64.29",
    "KW Richardson": "50.00",
    "Shivam Sharma": "166.67",
    "YS Chahal": "100.00",
    "R Shukla": "90.00",
    "LMP Simmons": "132.66",
    "VH Zol": "126.09",
    "Ankit Sharma": "125.93",
    "DH Yagnik": "66.67",
    "M Vohra": "133.33",
    "KK Cooper": "139.29",
    "BCJ Cutting": "133.33",
    "Imran Tahir": "88.89",
    "S Kaul": "100.00",
    "DJ Hussey": "126.09",
    "AN Ahmed": "400.00",
    "UBT Chand": "28.57",
    "WD Parnell": "100.00",
    "SE Marsh": "145.83",
    "BE Hendricks": "0.00",
    "S Gopal": "110.00",
    "M de Lange": "50.00",
    "R Tewatia": "123.08",
    "VS Malik": "100.00",
    "S Anirudha": "75.00",
    "JO Holder": "177.78",
    "Karanveer Singh": "100.00",
    "P Kumar": "50.00",
    "MM Sharma": "100.00"
  },
  "2015": {
    "RG Sharma": "142.60",
    "AJ Finch": "69.70",
    "AP Tare": "82.35",
    "AT Rayudu": "151.08",
    "CJ Anderson": "126.67",
    "RV Uthappa": "126.83",
    "G Gambhir": "114.74",
    "MK Pandey": "120.97",
    "SA Yadav": "137.72",
    "YK Pathan": "128.93",
    "DR Smith": "117.35",
    "BB McCullum": "148.81",
    "SK Raina": "117.24",
    "F du Plessis": "119.87",
    "RA Jadeja": "103.94",
    "MS Dhoni": "120.39",
    "DJ Bravo": "129.14",
    "R Ashwin": "162.50",
    "MM Sharma": "155.56",
    "MA Agarwal": "115.76",
    "CM Gautam": "80.00",
    "JA Morkel": "122.86",
    "SS Iyer": "121.94",
    "KM Jadhav": "135.00",
    "Yuvraj Singh": "115.35",
    "JP Duminy": "126.61",
    "NM Coulter-Nile": "100.00",
    "A Mishra": "66.67",
    "Imran Tahir": "83.33",
    "AM Rahane": "131.71",
    "SV Samson": "122.89",
    "SPD Smith": "131.28",
    "KK Nair": "126.57",
    "STR Binny": "108.82",
    "JP Faulkner": "125.22",
    "DJ Hooda": "152.53",
    "CH Morris": "161.70",
    "V Sehwag": "115.12",
    "WP Saha": "121.46",
    "M Vijay": "108.19",
    "GJ Maxwell": "126.96",
    "AR Patel": "115.73",
    "DA Miller": "133.71",
    "GJ Bailey": "132.82",
    "MG Johnson": "93.94",
    "Anureet Singh": "66.67",
    "Karanveer Singh": "73.33",
    "DA Warner": "152.72",
    "S Dhawan": "120.48",
    "KL Rahul": "106.77",
    "NV Ojha": "108.73",
    "RS Bopara": "120.83",
    "KS Williamson": "106.90",
    "KV Sharma": "119.54",
    "Parvez Rasool": "100.00",
    "AD Russell": "187.36",
    "Shakib Al Hasan": "124.14",
    "CH Gayle": "137.15",
    "V Kohli": "129.16",
    "KD Karthik": "118.49",
    "Mandeep Singh": "155.45",
    "AB de Villiers": "170.43",
    "DJG Sammy": "72.22",
    "SA Abbott": "150.00",
    "HV Patel": "146.15",
    "AN Ahmed": "200.00",
    "AD Mathews": "134.58",
    "TG Southee": "162.50",
    "R Dhawan": "109.09",
    "KA Pollard": "155.76",
    "J Suchith": "160.00",
    "Harbhajan Singh": "144.44",
    "VR Aaron": "300.00",
    "YS Chahal": "100.00",
    "PA Patel": "132.94",
    "UBT Chand": "117.24",
    "S Gopal": "100.00",
    "P Negi": "150.65",
    "A Nehra": "20.00",
    "RG More": "100.00",
    "EJG Morgan": "125.50",
    "A Ashish Reddy": "162.22",
    "LMP Simmons": "119.21",
    "R Vinay Kumar": "0.00",
    "P Kumar": "68.00",
    "NLTC Perera": "85.71",
    "Gurkeerat Singh": "85.37",
    "RN ten Doeschate": "138.64",
    "PP Chawla": "110.20",
    "SR Watson": "129.00",
    "HH Pandya": "164.71",
    "MS Bisla": "127.59",
    "RR Rossouw": "155.56",
    "D Wiese": "137.08",
    "Iqbal Abdulla": "117.65",
    "MK Tiwary": "98.28",
    "SE Marsh": "145.31",
    "MC Henriques": "134.11",
    "SN Khan": "156.34",
    "MA Starc": "78.57",
    "MJ McClenaghan": "260.00",
    "SL Malinga": "120.00",
    "DS Kulkarni": "33.33",
    "PV Tambe": "75.00",
    "GH Vihari": "108.33",
    "DW Steyn": "166.67",
    "B Kumar": "188.89",
    "Sandeep Sharma": "81.82",
    "S Nadeem": "33.33",
    "DJ Muthuswami": "33.33",
    "M Vohra": "100.00",
    "J Botha": "206.67",
    "SS Tiwary": "132.93",
    "PJ Cummins": "0.00",
    "UT Yadav": "193.33",
    "GB Hogg": "116.67",
    "SN Thakur": "116.67",
    "J Theron": "100.00",
    "NJ Maddinson": "80.00",
    "Bipul Sharma": "100.00",
    "SP Narine": "0.00",
    "Q de Kock": "158.44",
    "R Bhatia": "0.00",
    "Ankit Sharma": "140.00",
    "BE Hendricks": "100.00",
    "MEK Hussey": "105.48",
    "Azhar Mahmood": "120.00",
    "M Morkel": "133.33",
    "S Aravind": "0.00"
  },
  "2016": {
    "LMP Simmons": "100.00",
    "RG Sharma": "131.81",
    "HH Pandya": "74.58",
    "JC Buttler": "136.36",
    "AT Rayudu": "118.86",
    "KA Pollard": "140.54",
    "S Gopal": "20.00",
    "Harbhajan Singh": "103.37",
    "R Vinay Kumar": "118.18",
    "MJ McClenaghan": "147.83",
    "AM Rahane": "124.03",
    "F du Plessis": "122.62",
    "KP Pietersen": "121.67",
    "MA Agarwal": "103.85",
    "Q de Kock": "131.27",
    "SS Iyer": "69.77",
    "KK Nair": "118.60",
    "SV Samson": "109.81",
    "P Negi": "96.61",
    "CR Brathwaite": "212.82",
    "CH Morris": "171.05",
    "NM Coulter-Nile": "81.82",
    "A Mishra": "30.77",
    "Z Khan": "100.00",
    "RV Uthappa": "133.56",
    "G Gambhir": "118.44",
    "MK Pandey": "131.91",
    "M Vijay": "121.45",
    "M Vohra": "120.15",
    "DA Miller": "116.67",
    "GJ Maxwell": "138.76",
    "WP Saha": "126.17",
    "MP Stoinis": "131.53",
    "AR Patel": "137.04",
    "AJ Finch": "127.60",
    "BB McCullum": "130.63",
    "SK Raina": "124.69",
    "KD Karthik": "122.71",
    "RA Jadeja": "102.69",
    "Ishan Kishan": "102.44",
    "DJ Bravo": "112.50",
    "CH Gayle": "143.67",
    "V Kohli": "149.23",
    "AB de Villiers": "165.94",
    "SR Watson": "132.59",
    "KM Jadhav": "127.27",
    "SN Khan": "212.90",
    "DA Warner": "146.71",
    "S Dhawan": "114.38",
    "MC Henriques": "112.35",
    "NV Ojha": "99.27",
    "DJ Hooda": "116.13",
    "EJG Morgan": "117.14",
    "A Ashish Reddy": "156.67",
    "KV Sharma": "109.09",
    "AD Russell": "150.40",
    "YK Pathan": "141.02",
    "C Munro": "96.77",
    "SA Yadav": "122.97",
    "PA Patel": "110.63",
    "SPD Smith": "146.74",
    "MS Dhoni": "129.09",
    "MR Marsh": "70.00",
    "R Bhatia": "188.89",
    "SE Marsh": "119.55",
    "MG Johnson": "38.46",
    "MM Sharma": "123.08",
    "P Sahu": "158.33",
    "Sandeep Sharma": "100.00",
    "B Kumar": "165.38",
    "KH Pandya": "188.10",
    "TG Southee": "150.00",
    "AD Nath": "74.07",
    "JP Faulkner": "128.33",
    "P Kumar": "96.00",
    "DS Kulkarni": "168.75",
    "NLTC Perera": "154.64",
    "IK Pathan": "78.57",
    "R Ashwin": "110.81",
    "D Wiese": "125.00",
    "JP Duminy": "122.44",
    "MJ Guptill": "105.56",
    "KJ Abbott": "162.50",
    "Shakib Al Hasan": "106.54",
    "KL Rahul": "143.84",
    "TM Head": "138.46",
    "STR Binny": "153.66",
    "KW Richardson": "100.00",
    "DW Steyn": "50.00",
    "Ankit Sharma": "150.00",
    "M Ashwin": "0.00",
    "NS Naik": "69.70",
    "R Dhawan": "233.33",
    "AP Tare": "80.00",
    "DR Smith": "144.00",
    "JA Morkel": "177.78",
    "R Sathish": "104.35",
    "PP Chawla": "103.85",
    "UT Yadav": "180.00",
    "Bipul Sharma": "212.50",
    "RR Pant": "128.57",
    "CA Lynn": "119.05",
    "SS Tiwary": "114.86",
    "SW Billings": "135.38",
    "Mohammed Shami": "66.67",
    "JO Holder": "115.79",
    "SP Narine": "50.00",
    "KS Williamson": "100.00",
    "Sachin Baby": "145.12",
    "Parvez Rasool": "111.11",
    "Gurkeerat Singh": "137.80",
    "KC Cariappa": "130.00",
    "PSP Handscomb": "66.67",
    "Swapnil Singh": "0.00",
    "J Yadav": "75.00",
    "UT Khawaja": "120.95",
    "Yuvraj Singh": "130.39",
    "GJ Bailey": "94.38",
    "HM Amla": "131.93",
    "JJ Bumrah": "72.73",
    "F Behardien": "107.69",
    "BB Sran": "100.00",
    "A Zampa": "0.00",
    "N Rana": "140.54",
    "A Nehra": "100.00",
    "UBT Chand": "0.00",
    "PV Tambe": "41.18",
    "S Kaushik": "0.00",
    "BCJ Cutting": "180.56",
    "S Nadeem": "33.33",
    "Imran Tahir": "71.43",
    "M Morkel": "100.00",
    "ER Dwivedi": "160.00",
    "SB Jakati": "100.00",
    "Iqbal Abdulla": "137.04",
    "CJ Jordan": "75.00"
  },
  "2017": {
    "DA Warner": "139.35",
    "S Dhawan": "125.72",
    "MC Henriques": "135.78",
    "Yuvraj Singh": "134.04",
    "DJ Hooda": "147.17",
    "BCJ Cutting": "188.89",
    "CH Gayle": "116.28",
    "Mandeep Singh": "106.82",
    "TM Head": "138.53",
    "KM Jadhav": "138.34",
    "SR Watson": "88.75",
    "Sachin Baby": "93.75",
    "STR Binny": "101.30",
    "S Aravind": "86.49",
    "YS Chahal": "56.52",
    "TS Mills": "80.00",
    "A Choudhary": "125.00",
    "PA Patel": "129.08",
    "JC Buttler": "146.77",
    "RG Sharma": "120.22",
    "N Rana": "120.22",
    "AT Rayudu": "113.75",
    "KH Pandya": "130.65",
    "KA Pollard": "134.35",
    "HH Pandya": "146.20",
    "TG Southee": "233.33",
    "AM Rahane": "116.46",
    "MA Agarwal": "89.66",
    "SPD Smith": "118.30",
    "BA Stokes": "139.82",
    "MS Dhoni": "111.11",
    "JJ Roy": "147.50",
    "BB McCullum": "140.97",
    "SK Raina": "143.04",
    "AJ Finch": "157.89",
    "KD Karthik": "135.21",
    "G Gambhir": "122.96",
    "CA Lynn": "169.54",
    "MK Tiwary": "133.88",
    "DT Christian": "154.90",
    "HM Amla": "142.86",
    "M Vohra": "134.71",
    "WP Saha": "121.24",
    "AR Patel": "132.75",
    "GJ Maxwell": "166.67",
    "DA Miller": "101.22",
    "Vishnu Vinod": "73.08",
    "Iqbal Abdulla": "83.33",
    "P Negi": "128.57",
    "AP Tare": "81.82",
    "SW Billings": "130.19",
    "KK Nair": "123.25",
    "SV Samson": "140.36",
    "RR Pant": "161.95",
    "CH Morris": "158.76",
    "CR Brathwaite": "85.71",
    "PJ Cummins": "145.28",
    "A Mishra": "90.74",
    "S Nadeem": "33.33",
    "Z Khan": "30.77",
    "DR Smith": "151.27",
    "DS Kulkarni": "50.00",
    "P Kumar": "88.89",
    "Basil Thampi": "93.33",
    "RV Uthappa": "163.03",
    "MK Pandey": "126.52",
    "YK Pathan": "120.17",
    "SA Yadav": "117.98",
    "CR Woakes": "100.00",
    "SP Narine": "165.93",
    "Harbhajan Singh": "94.12",
    "AB de Villiers": "126.32",
    "CJ Anderson": "111.81",
    "F du Plessis": "114.29",
    "RA Tripathi": "142.18",
    "R Bhatia": "94.12",
    "DL Chahar": "280.00",
    "A Zampa": "83.33",
    "AB Dinda": "100.00",
    "Imran Tahir": "0.00",
    "NV Ojha": "114.49",
    "V Shankar": "131.17",
    "Rashid Khan": "122.22",
    "B Kumar": "100.00",
    "MP Stoinis": "70.83",
    "MM Sharma": "100.00",
    "VR Aaron": "36.36",
    "V Kohli": "120.31",
    "MJ McClenaghan": "106.67",
    "Ankit Sharma": "166.67",
    "SN Thakur": "0.00",
    "RD Chahar": "150.00",
    "LH Ferguson": "100.00",
    "C de Grandhomme": "140.00",
    "Bipul Sharma": "134.78",
    "SS Iyer": "136.84",
    "EJG Morgan": "108.33",
    "KC Cariappa": "28.57",
    "Sandeep Sharma": "100.00",
    "Ishan Kishan": "131.28",
    "JD Unadkat": "66.67",
    "AF Milne": "58.33",
    "S Badree": "61.90",
    "AD Mathews": "114.29",
    "Mohammed Shami": "156.52",
    "Mohammad Nabi": "100.00",
    "I Sharma": "61.54",
    "RA Jadeja": "138.60",
    "AJ Tye": "182.76",
    "KS Williamson": "150.59",
    "SE Marsh": "134.01",
    "Shakib Al Hasan": "100.00",
    "JP Faulkner": "90.00",
    "MG Johnson": "117.65",
    "K Rabada": "84.62",
    "AD Nath": "0.00",
    "NM Coulter-Nile": "107.69",
    "Kuldeep Yadav": "95.24",
    "UT Yadav": "83.33",
    "Washington Sundar": "75.00",
    "KV Sharma": "116.67",
    "DM Bravo": "150.00",
    "AR Bawne": "100.00",
    "SP Jackson": "122.58",
    "MJ Guptill": "151.72",
    "Anureet Singh": "125.00",
    "IK Pathan": "66.67",
    "Ankit Soni": "77.78",
    "JJ Bumrah": "145.45",
    "SL Malinga": "350.00",
    "PJ Sangwan": "50.00",
    "S Kaul": "0.00",
    "LMP Simmons": "120.18",
    "MN Samuels": "100.00",
    "Swapnil Singh": "63.16",
    "R Tewatia": "190.00",
    "MM Patel": "0.00",
    "SS Tiwary": "120.93",
    "TA Boult": "62.50",
    "CJ Jordan": "0.00",
    "IR Jaggi": "86.84",
    "PP Chawla": "33.33",
    "AS Rajpoot": "57.14"
  }
}